<?xml version="1.0" encoding="UTF-8" standalone="no"?>
<!-- Created with Inkscape (http://www.inkscape.org/) -->

<svg
   xmlns:dc="http://purl.org/dc/elements/1.1/"
   xmlns:cc="http://creativecommons.org/ns#"
   xmlns:rdf="http://www.w3.org/1999/02/22-rdf-syntax-ns#"
   xmlns:svg="http://www.w3.org/2000/svg"
   xmlns="http://www.w3.org/2000/svg"
   xmlns:xlink="http://www.w3.org/1999/xlink"
   version="1.1"
   width="248"
   height="208.4239"
   id="svg6409">
  <defs
     id="defs6411" />
  <metadata
     id="metadata6414">
    <rdf:RDF>
      <cc:Work
         rdf:about="">
        <dc:format>image/svg+xml</dc:format>
        <dc:type
           rdf:resource="http://purl.org/dc/dcmitype/StillImage" />
        <dc:title></dc:title>
      </cc:Work>
    </rdf:RDF>
  </metadata>
  <g
     transform="translate(-251,-428.15023)"
     id="layer1">
    <g
       transform="translate(-408.7549,-577.18077)"
       id="g2080">
      <image
         xlink:href="data:image/png;base64,iVBORw0KGgoAAAANSUhEUgAAAPkAAAB0CAYAAABHYZSWAAAACXBIWXMAAAsSAAALEgHS3X78AAAA GXRFWHRTb2Z0d2FyZQBBZG9iZSBJbWFnZVJlYWR5ccllPAAABypJREFUeNrsnG1v21QYhu3Wadqt KRsMOkCIz+wb/P+fwSdAIE3ANtqV0dGXpUnMOdJ9tIPjJI5fj+3rkh5lSZt0qnr5Ps/xY8dRdeLM 8zQCgGCIK77X1oGpQ/3bCr40tcpIj/gAHZFUlHxi6pGpU33W3NS9HpeSe5URH+kBeiB5rPSemfra 1DcS/dbUW1PvTT2orPR3pj54spP2AIFLbpfoU1PPTL0w9b2pL0zdmLow9U5SW7n/NnVp6toT/o60 BwhXcteHPzb1lanvTP2gfy+V4reS+FaCvzZ1pa9d6TXSHiBgyQ/Vi5+b+lbL9XO9vlAtJbqV+R89 vvekJ+0BAl6uW5mPTX1i6lNTZ6ZO9HrkybfS1/3EdtKT9gABJ3miJLdy2w23iZbwBzkHg0QHhDQj PWkPEKDkrh+30j419blEn0Qfz7nHOe9JN0jfdtojPSD5Hv24Ffy5luxHkj/e8r486dtKe5b4gOR7 cCCpZxL8kdeL73OwaDPtWeIDkpfoyaeqJKo2HttG2rOhB0i+p+DHSvBpiRTvIu3Z0AMkLyidv+n2 TEv2upK8ybTn9B0geUHBymy6tSX9rrTn9B0geQHcEMwTpfnjBpfrdad916fvEB96keRuCGYmwScd JXgbS3zSHkYleZEhmL4Q8rAO4kOnkofWj5P2ADUv1/vQj5P2ABWSvI/9OGkPSD6yfpy0ByQfYT9O 2gPL9aiei1JIe9IeetCT131RCmlP2kMgy/W2Lkoh7bnJBrQseQgXpZD23GQDGpacTbfxpT1L/JEt 18c0BEPas6E3yiQf+xDMGNOeDb2RSM4QzHjTntN3I5Kcfny8ac/pu5Es1xmCGW/aM6wzsp6cIRik J+0HulxnCAYYzR2o5AzBAGk/AsnZdAPSfuDLdYZggLQfeJIzBAOk/UAlZwgGSPsBSZ/QjwNpP+y0 37RcZwgGSPuBpP2unpwhGCDte36TjWSL4AzBAGk/gJtsJDm/LIZggLQf0E028iRn0w1I+wHdZCNv uc4QDJD2A7rJRrKhH2cIBkj7gdxkI9nSjzMEA0hfPO2DPX2X0I8D1JL2wQ7rZJfrDMEAtLPEbzrt V7t6coZgAJpf4jeR9jeS/0GfnSY5gjMEA9DPtH9r6pWpN0p+K/0i8X4wQzAA/U37Gwn+s6kfTf1i 6sK+15ecTTeA/qb9vRL8VOJfKM3nSeaDGIIB6F/ar5TmK/l75L8/yfTjJzoSnLBUB+hN2ruV+Eop bpfx/yrh08Trx+1G25mW6e4IsdTX/QKAsKSPvTS/luR3WsqvJflUwt/pG2MJf6jX3aP/QxAfoFtS CW1T3G7I3ahfT33JU71ojwIvtVy3W/PnXrKfqI4ke5wjPtIDtC+4TXG78WY32i7k8f8kT721/O86 Ivxh6kuV3cWb6dGdWpuonPxT0h6gM8mX0ccd9ddaha8Nw9gn9oT6pRr2P9WfP5HUMwn+XK9NJbc7 p35G2gN0huvH/XPnC/fFJHM0WOkIcKvl+isvsf159iM9OvFJe4Due/IPqkXknWdPMt+YesK7yRq3 PX8laRM99y9kIe0BuhX8XuHsrlKL8iT33+QenWhZ6aOM+KQ9QDeC+5tu7oKVjUkebRE+K31E2gME IfnWTbcikm+TnrQH6B43t/5OaX4TeZtuZSQn7QHC68dzh2DqlJy0B+i+H18bgmlSctIeIJB+vE3J SXuA+tk6BNO15KQ9QH09ee4QTIiSk/YA+wu+cQimD5KT9gCbPdg5BNNXyfuU9kgPTf7dF9p0G4Lk IaY9S3xog51DMEOWvOu0Z4kPbfXjW4dgxiR522nPhh602Y9vHIIZu+RNpj0behBMP47kzaQ9p++g aQoNwSB5s2nP6TtooyffOgSD5M2mPcM60LTgO4dgkDysJT5pD0X/vgoPwSB5eEt80h6K/D3ttemG 5KQ9ad8/Cg/BIDlpT9r3tx8vNASD5KQ9ad/vfnznEAySk/ak/Qj6cSQn7Un7gffjSE7ac9ntwPtx JCftuex24P04kpP2XHY78H4cyaHptGdDrz72uigFyaGttGdDr/6evNBFKUgObaU9p+/qFbzwRSlI Dm2mPafvqv+u974oBcmhzbRnWKf677X0phuSQ4hLfNJ+nVJDMEgOIS/xSfv1fnzvIRgkB9I+/LSv NASD5EDah5/2lftxJAfSPvy0Lz0Eg+RA2vcj7UsPwSA5kPbhp32lIRgkB9I+7LSvPASD5EDah532 tWy6ITkgfbhp7yQvPQSD5ADhpb0vvf35c4l9HZUYgkFygPDS3kl/rPfbpfobU39FJYZgkBwgvLR3 0j/V1+1u+k+mftPnzPftx5EcIKy0t4+nkv4zff9LU7+qL38o8x/k1joAzRPnPI+9tE8y0p9KeNub 2x31Sy3X52WW60gO0L34edIner6Q3O78OJIDDEj6KCN2WvWDASBM6dMqH/SfAAMA0cuuU+no3VoA AAAASUVORK5CYII="
         width="248"
         height="115"
         transform="translate(659.7549,1098.7549)"
         id="image2082"
         style="opacity:0.08999999;overflow:visible" />
      <g
         id="g2084">
        <polygon
           points="662.497,1157.077 675.048,1101.141 902.871,1152.107 890.32,1208.046 "
           id="polygon2086"
           style="fill:#e38899" />
      </g>
    </g>
    <g
       transform="translate(-408.7549,-577.18077)"
       id="g2096">
      <g
         id="g2098">
        <g
           id="g2100"
           style="opacity:0.3">
          <path
             d="m 772.212,1085.019 c -12.316,23.124 -32.661,37.588 -50.494,37.792 4.863,1.287 9.97,1.975 15.238,1.975 32.841,0 59.463,-26.622 59.463,-59.462 0,-20.393 -10.266,-38.382 -25.907,-49.095 14.615,13.463 15.797,42.325 1.7,68.79 z"
             id="path2102"
             style="opacity:0.2;fill:#ffffff;fill-rule:evenodd" />
        </g>
        <path
           d="m 798.474,1066.07 c 0,33.337 -27.024,60.36 -60.362,60.36 -33.337,0 -60.361,-27.023 -60.361,-60.36 0,-33.339 27.024,-60.364 60.361,-60.364 33.337,0 60.362,27.024 60.362,60.364 z"
           id="path2104"
           style="fill:#396088;fill-rule:evenodd" />
        <g
           id="g2106">
          <path
             d="m 701.956,1045.098 c 12.319,-23.124 32.661,-37.587 50.495,-37.792 -4.864,-1.287 -9.971,-1.975 -15.239,-1.975 -32.841,0 -59.462,26.623 -59.462,59.464 0,20.39 10.265,38.38 25.906,49.093 -14.614,-13.464 -15.798,-42.325 -1.7,-68.79 z"
             id="path2108"
             style="opacity:0.2;fill:#ffffff;fill-rule:evenodd" />
        </g>
        <circle
           cx="737.21301"
           cy="1065.17"
           r="59.463001"
           id="circle2110"
           style="opacity:0.6;fill:#4e92c9;fill-rule:evenodd" />
        <path
           d="m 789.555,1090.938 c -1.245,0.583 -1.474,2.25 -3.117,2.873 1.6,-3.791 3.288,-7.28 3.837,-11.137 1.266,-3.457 1.738,-7.079 2.292,-10.688 0.514,-3.348 0.311,-6.713 0.349,-10.075 0.01,-0.773 -0.097,-1.653 1.159,-1.085 1.081,0.443 1.402,1.427 1.443,2.409 0.234,5.411 -0.141,10.776 -1.416,16.058 -0.793,4.163 -2.13,8.114 -4.547,11.645 z"
           id="path2112"
           style="opacity:0.8;fill:#ffffff;fill-rule:evenodd" />
        <path
           d="m 688.498,1036.083 c 1.365,-0.909 1.811,-2.497 2.697,-3.751 3.723,-5.269 8.008,-9.951 13.403,-13.554 3.203,-1.482 6.096,-3.59 9.639,-4.492 -2.425,2.318 -5.581,3.67 -8.227,5.718 -2.837,2.195 -5.291,4.721 -7.745,7.261 -2.422,2.507 -4.311,5.464 -6.389,8.261 -2.043,2.748 -4.013,5.558 -6.146,8.271 0.041,-2.913 2.157,-5.041 2.768,-7.714 z"
           id="path2114"
           style="opacity:0.8;fill:#ffffff;fill-rule:evenodd" />
      </g>
      <path
         d="m 756.455,1037.541 h -36.689 c -3.161,0 -5.722,2.557 -5.722,5.71 v 36.717 c 0,3.152 2.561,5.709 5.722,5.709 h 36.689 c 3.161,0 5.724,-2.557 5.724,-5.709 v -36.717 c 0,-3.153 -2.563,-5.71 -5.724,-5.71 z m -8.974,6.828 c 0,-0.742 0.603,-1.342 1.345,-1.342 h 6.508 c 0.743,0 1.346,0.6 1.346,1.342 v 6.493 c 0,0.742 -0.603,1.344 -1.346,1.344 h -6.508 c -0.742,0 -1.345,-0.603 -1.345,-1.344 v -6.493 z m -9.315,8.062 c 5.113,0 9.258,4.134 9.258,9.234 0,5.1 -4.145,9.234 -9.258,9.234 -5.112,0 -9.255,-4.134 -9.255,-9.234 0,-5.101 4.143,-9.234 9.255,-9.234 z m 18.626,26.305 c 0,0.743 -0.601,1.342 -1.347,1.342 h -34.558 c -0.743,0 -1.347,-0.6 -1.347,-1.342 v -20.934 h 4.506 c -0.341,1.232 -0.521,2.526 -0.521,3.862 0,8.055 6.567,14.609 14.641,14.609 8.075,0 14.644,-6.554 14.644,-14.609 0,-1.336 -0.183,-2.63 -0.52,-3.862 h 4.502 v 20.934 z"
         id="path2116"
         style="fill:#ffffff" />
      <g
         id="g2118">
        <g
           id="g2120">
          <g
             id="g2122">
            <path
               d="m 717.856,1095.335 c -1.396,-1.289 -3.312,-1.625 -4.78,-0.258 -0.896,0.834 -1.935,2.526 -0.899,3.599 0.943,0.978 3.082,0.815 4.305,1.051 1.226,0.237 1.212,1.2 0.468,2.124 -0.363,0.452 -0.878,0.74 -1.383,1.001 -0.126,0.065 -2.358,0.787 -1.663,-0.361 0.649,-1.073 -1.028,-2.048 -1.676,-0.979 -1.094,1.806 0.334,3.811 2.397,3.593 2.086,-0.221 4.011,-1.631 4.676,-3.627 0.641,-1.921 -0.57,-3.214 -2.304,-3.621 -0.987,-0.232 -2.014,-0.267 -3.008,-0.464 -0.739,-0.146 -0.289,0.293 -0.135,-0.184 0.354,-1.1 1.837,-1.232 2.631,-0.5 0.917,0.845 2.293,-0.523 1.371,-1.374 l 0,0 z"
               id="path2124"
               style="fill:#ffffff" />
          </g>
        </g>
        <g
           id="g2126">
          <g
             id="g2128">
            <path
               d="m 720.22,1090.872 c 0.291,3.66 -0.876,7.849 1.108,11.169 0.776,1.298 2.166,2.085 3.551,1.227 1.496,-0.926 2.062,-3.349 2.488,-4.904 0.332,-1.208 -1.54,-1.721 -1.871,-0.516 -0.344,1.25 -0.695,2.619 -1.525,3.647 -0.953,1.179 -1.782,-3.203 -1.797,-3.4 -0.178,-2.405 0.177,-4.821 -0.015,-7.224 -0.098,-1.237 -2.039,-1.247 -1.939,10e-4 l 0,0 z"
               id="path2130"
               style="fill:#ffffff" />
          </g>
        </g>
        <g
           id="g2132">
          <g
             id="g2134">
            <path
               d="m 719.09,1096.088 c 2.41,0.394 4.617,-0.503 6.92,-1.089 1.212,-0.309 0.697,-2.18 -0.516,-1.871 -1.882,0.479 -3.913,1.412 -5.889,1.089 -1.223,-0.199 -1.748,1.67 -0.515,1.871 l 0,0 z"
               id="path2136"
               style="fill:#ffffff" />
          </g>
        </g>
        <g
           id="g2138">
          <g
             id="g2140">
            <path
               d="m 747.55,1094.732 c 0.011,-0.248 0.021,-0.496 0.03,-0.744 0.052,-1.259 -1.85,-1.234 -1.939,0 -0.121,1.65 0.165,3.271 0.233,4.916 0.051,1.247 1.912,1.254 1.939,0 0.034,-1.518 -0.152,-3.05 0.261,-4.531 0.273,-0.982 1.734,-2.751 2.726,-1.643 0.835,0.935 2.202,-0.442 1.371,-1.372 -1.46,-1.634 -3.477,-0.885 -4.812,0.496 -1.832,1.893 -1.432,4.65 -1.484,7.05 0.646,0 1.293,0 1.939,0 -0.067,-1.646 -0.354,-3.266 -0.233,-4.916 -0.646,0 -1.293,0 -1.939,0 -0.011,0.248 -0.021,0.496 -0.03,0.744 -0.052,1.252 1.888,1.247 1.938,0 l 0,0 z"
               id="path2142"
               style="fill:#ffffff" />
          </g>
        </g>
        <g
           id="g2144">
          <g
             id="g2146">
            <path
               d="m 700.365,1090.872 c 0.347,5.014 0.15,10.03 0.132,15.05 -0.005,1.251 1.936,1.251 1.939,0 0.019,-5.02 0.216,-10.036 -0.132,-15.05 -0.085,-1.241 -2.026,-1.249 -1.939,0 l 0,0 z"
               id="path2148"
               style="fill:#ffffff" />
          </g>
        </g>
        <g
           id="g2150">
          <g
             id="g2152">
            <path
               d="m 703.803,1096.634 c -0.413,2.862 -0.668,5.739 -0.688,8.632 -0.008,1.075 1.688,1.35 1.905,0.258 0.328,-1.651 0.496,-3.327 0.858,-4.973 0.15,-0.685 1.061,-4.325 2.291,-3.021 0.868,0.92 0.95,2.896 1.069,4.069 0.129,1.261 0.155,2.532 0.156,3.798 0,1.251 1.94,1.251 1.939,0 -10e-4,-2.698 0.342,-8.467 -2.63,-9.868 -1.771,-0.835 -3.365,0.755 -3.995,2.267 -0.959,2.3 -1.08,4.795 -1.561,7.212 0.636,0.086 1.271,0.172 1.905,0.258 0.02,-2.716 0.23,-5.428 0.619,-8.117 0.18,-1.222 -1.69,-1.749 -1.868,-0.515 l 0,0 z"
               id="path2154"
               style="fill:#ffffff" />
          </g>
        </g>
        <g
           id="g2156">
          <g
             id="g2158">
            <path
               d="m 730.182,1095.538 c 0.068,-1.013 0.62,-1.675 1.662,-1.627 1.196,0.055 1.5,1.381 1.423,2.327 0.409,-0.312 0.818,-0.624 1.228,-0.936 -1.624,-0.323 -3.583,-0.268 -4.919,0.843 -1.425,1.185 -1.508,3.288 -0.561,4.806 1.911,3.066 6.86,1.236 6.893,-2.143 -0.646,0 -1.293,0 -1.939,0 0.058,1.232 0.42,2.306 0.95,3.41 0.542,1.127 2.215,0.143 1.676,-0.979 -0.382,-0.793 -0.645,-1.547 -0.687,-2.431 -0.058,-1.244 -1.928,-1.257 -1.939,0 -0.017,1.706 -2.498,2.414 -3.407,0.956 -1.445,-2.319 1.937,-2.886 3.418,-2.591 0.652,0.13 1.174,-0.279 1.228,-0.936 0.169,-2.05 -1.026,-3.979 -3.163,-4.243 -2.218,-0.274 -3.663,1.476 -3.801,3.542 -0.086,1.252 1.856,1.244 1.938,0 l 0,0 z"
               id="path2160"
               style="fill:#ffffff" />
          </g>
        </g>
        <g
           id="g2162">
          <g
             id="g2164">
            <path
               d="m 754.753,1093.4 c 0.067,-1.013 0.619,-1.674 1.661,-1.626 1.196,0.055 1.501,1.381 1.424,2.327 0.409,-0.312 0.818,-0.624 1.228,-0.936 -1.625,-0.323 -3.584,-0.268 -4.919,0.843 -1.425,1.185 -1.506,3.287 -0.56,4.806 1.911,3.066 6.86,1.237 6.892,-2.143 -0.646,0 -1.293,0 -1.939,0 0.058,1.233 0.42,2.307 0.95,3.412 0.542,1.127 2.215,0.143 1.676,-0.979 -0.382,-0.794 -0.645,-1.548 -0.687,-2.432 -0.058,-1.244 -1.928,-1.257 -1.939,0 -0.017,1.707 -2.497,2.415 -3.406,0.956 -1.445,-2.319 1.935,-2.885 3.417,-2.591 0.652,0.129 1.174,-0.279 1.228,-0.936 0.169,-2.049 -1.027,-3.978 -3.163,-4.242 -2.218,-0.274 -3.664,1.475 -3.801,3.542 -0.085,1.249 1.856,1.241 1.938,-10e-4 l 0,0 z"
               id="path2166"
               style="fill:#ffffff" />
          </g>
        </g>
        <g
           id="g2168">
          <g
             id="g2170">
            <path
               d="m 742.283,1091.638 c -4.939,-1.514 -7.396,5.201 -4.105,8.377 3.31,3.196 5.507,-4.355 5.604,-6.395 -0.646,0 -1.293,0 -1.939,0 0.055,3.205 0.679,6.431 0.043,9.614 -0.748,3.748 -7.471,5.28 -9.359,1.674 -0.581,-1.108 -2.256,-0.128 -1.676,0.979 1.959,3.738 7.665,3.516 10.749,1.396 4.004,-2.752 2.252,-9.684 2.183,-13.665 -0.021,-1.256 -1.881,-1.245 -1.939,0 -0.07,1.48 -0.602,3.017 -1.314,4.301 -0.955,1.721 -2.037,-0.764 -2.059,-1.667 -0.043,-1.763 1.59,-3.269 3.299,-2.745 1.197,0.369 1.706,-1.504 0.513,-1.869 l 0,0 z"
               id="path2172"
               style="fill:#ffffff" />
          </g>
        </g>
        <g
           id="g2174">
          <g
             id="g2176">
            <path
               d="m 761.744,1091.264 c 0.026,2.62 0.236,5.233 0.264,7.853 0.013,1.25 1.951,1.251 1.939,0 -0.021,-2.378 -0.57,-5.965 1.622,-7.583 0.696,-0.514 1.515,3.603 1.576,4.046 0.135,0.974 1.663,0.882 1.871,0 0.15,-0.638 1.087,-4.249 2.131,-3.803 1.176,0.501 0.791,3.218 0.827,4.207 0.07,1.981 0.468,4.468 2.911,4.496 1.252,0.014 1.25,-1.926 0,-1.94 -1.383,-0.016 -1.005,-3.977 -1.047,-4.902 -0.058,-1.251 -0.288,-2.447 -1.337,-3.249 -2.979,-2.277 -4.835,2.462 -5.356,4.676 0.624,0 1.247,0 1.871,0 -0.244,-1.769 -0.938,-5.856 -3.526,-5.501 -3.975,0.545 -3.507,6.811 -3.482,9.554 0.646,0 1.293,0 1.939,0 -0.026,-2.62 -0.236,-5.233 -0.264,-7.853 -0.012,-1.251 -1.953,-1.252 -1.939,0 l 0,0 z"
               id="path2178"
               style="fill:#ffffff" />
          </g>
        </g>
      </g>
    </g>
    <g
       transform="translate(-408.7549,-577.18077)"
       id="g2458">
      <g
         id="g2460">
        <g
           id="g2462">
          <path
             d="m 694.987,1135.757 c -2.268,-3.328 -5.699,-4.323 -9.184,-2.21 -2.149,1.304 -4.205,4.277 -2.112,6.434 1.939,2 5.512,2.338 7.881,3.674 2.071,1.168 -1.162,3.693 -2.222,4.243 -0.675,0.351 -6.518,1.121 -4.67,-0.773 1.636,-1.677 -0.931,-4.248 -2.568,-2.568 -2.835,2.907 -0.97,7.396 3.102,7.637 3.729,0.221 7.387,-1.203 9.563,-4.296 2.245,-3.191 0.706,-6.386 -2.404,-7.923 -1.705,-0.842 -3.559,-1.339 -5.289,-2.12 -0.299,-0.139 -0.586,-0.297 -0.861,-0.477 0.137,0.872 0.342,0.907 0.614,0.105 1.103,-1.841 3.851,-1.599 5.014,0.108 1.31,1.922 4.46,0.108 3.136,-1.834 l 0,0 z"
             id="path2464"
             style="fill:#ffffff" />
        </g>
      </g>
      <g
         id="g2466">
        <g
           id="g2468">
          <path
             d="m 744.006,1155.694 c 3.213,-1.868 11.53,-6.642 8.294,-11.435 -1.251,-1.852 -4.318,-1.162 -6.002,-0.458 -2.425,1.015 -4.372,2.826 -5.821,4.992 -2.779,4.155 -0.703,10.224 4.294,11.306 4.589,0.994 9.655,-2.569 11.919,-6.314 1.215,-2.01 -1.927,-3.834 -3.137,-1.833 -1.271,2.102 -3.379,3.637 -5.701,4.39 -2.99,0.969 -5.721,-1.306 -4.843,-4.487 0.653,-2.369 4.194,-5.606 6.824,-5.08 -0.836,-0.167 -0.364,-0.311 -0.941,0.608 -0.51,0.812 -1.392,1.477 -2.109,2.09 -1.399,1.196 -3.023,2.161 -4.61,3.083 -2.025,1.178 -0.196,4.318 1.833,3.138 l 0,0 z"
             id="path2470"
             style="fill:#ffffff" />
        </g>
      </g>
      <g
         id="g2472">
        <g
           id="g2474">
          <g
             id="g2476">
            <path
               d="m 802.585,1149.715 c -1.045,7.007 -5.333,14.676 -2.386,21.683 3.437,8.17 10.113,-0.998 12.204,-4.868 1.113,-2.061 -2.022,-3.894 -3.137,-1.833 -1.142,2.113 -2.372,4.53 -4.312,6.027 -2.027,1.564 -2.168,-4.489 -2.079,-5.566 0.406,-4.932 2.484,-9.599 3.212,-14.478 0.342,-2.29 -3.158,-3.275 -3.502,-0.965 l 0,0 z"
               id="path2478"
               style="fill:#ffffff" />
          </g>
        </g>
        <g
           id="g2480">
          <g
             id="g2482">
            <path
               d="m 798.685,1158.977 c 4.01,1.648 8.415,0.879 12.622,0.79 2.339,-0.05 2.344,-3.683 0,-3.633 -3.879,0.083 -7.963,0.858 -11.657,-0.66 -2.168,-0.891 -3.101,2.625 -0.965,3.503 l 0,0 z"
               id="path2484"
               style="fill:#ffffff" />
          </g>
        </g>
      </g>
      <g
         id="g2486">
        <g
           id="g2488">
          <path
             d="m 732.283,1147.404 c 0.123,-0.449 0.246,-0.898 0.369,-1.347 0.622,-2.269 -2.806,-3.192 -3.502,-0.966 -0.926,2.958 -1.078,6.036 -1.654,9.065 -0.433,2.272 2.911,3.258 3.502,0.966 0.751,-2.911 1.085,-5.878 2.583,-8.535 0.896,-1.588 4.279,-3.818 5.466,-1.575 1.096,2.071 4.231,0.235 3.137,-1.833 -1.938,-3.664 -6.081,-3.158 -9.082,-1.128 -4.063,2.749 -4.48,7.743 -5.605,12.105 1.167,0.322 2.335,0.644 3.502,0.966 0.576,-3.028 0.729,-6.11 1.654,-9.065 -1.167,-0.322 -2.335,-0.644 -3.502,-0.966 -0.123,0.449 -0.246,0.898 -0.369,1.347 -0.622,2.263 2.883,3.222 3.501,0.966 l 0,0 z"
             id="path2490"
             style="fill:#ffffff" />
        </g>
      </g>
      <g
         id="g2492">
        <g
           id="g2494">
          <path
             d="m 769.877,1151.842 c -0.987,3.938 -1.178,7.918 -1.087,11.964 0.032,1.414 1.508,2.213 2.733,1.568 2.185,-1.15 3.684,-2.954 5.473,-4.604 -0.856,0 -1.712,0 -2.568,0 1.707,1.357 2.77,4.065 5.007,4.694 1.923,0.541 3.433,-0.428 4.379,-2.073 2.311,-4.015 1.596,-9.323 2.668,-13.695 0.559,-2.275 -2.944,-3.24 -3.502,-0.966 -0.758,3.087 -0.818,6.336 -1.368,9.464 -0.168,0.957 -0.375,3.23 -1.252,3.859 0.099,-0.071 -2.963,-3.533 -3.363,-3.852 -0.8,-0.636 -1.777,-0.729 -2.568,0 -1.557,1.435 -2.835,3.034 -4.738,4.035 0.911,0.523 1.822,1.046 2.733,1.568 -0.085,-3.728 0.045,-7.364 0.956,-10.999 0.569,-2.27 -2.934,-3.234 -3.503,-0.963 l 0,0 z"
             id="path2496"
             style="fill:#ffffff" />
        </g>
      </g>
      <g
         id="g2498">
        <g
           id="g2500">
          <g
             id="g2502">
            <path
               d="m 790.201,1159.032 c -0.377,2.595 -0.937,5.158 -1.311,7.753 -0.173,1.196 0.275,2.378 1.549,2.729 1.055,0.29 2.556,-0.351 2.729,-1.549 0.375,-2.595 0.935,-5.159 1.312,-7.753 0.174,-1.196 -0.277,-2.379 -1.55,-2.729 -1.055,-0.29 -2.554,0.35 -2.729,1.549 l 0,0 z"
               id="path2504"
               style="fill:#ffffff" />
          </g>
        </g>
        <g
           id="g2506">
          <g
             id="g2508">
            <path
               d="m 795.494,1150.364 c 2.861,0 2.861,-4.437 0,-4.437 -2.861,0 -2.861,4.437 0,4.437 l 0,0 z"
               id="path2510"
               style="fill:#ffffff" />
          </g>
        </g>
      </g>
      <g
         id="g2512">
        <g
           id="g2514">
          <path
             d="m 717.032,1140.842 c 0.594,-1.901 1.873,-2.908 3.842,-2.291 2.053,0.645 2.032,3.095 1.522,4.73 0.889,-0.362 1.778,-0.724 2.668,-1.085 -2.795,-1.254 -6.326,-2.041 -9.23,-0.646 -3.125,1.5 -4.18,5.066 -3.315,8.285 1.793,6.68 12.025,5.599 13.569,-0.603 -1.167,-0.322 -2.335,-0.644 -3.502,-0.966 -0.401,2.289 -0.243,4.377 0.254,6.639 0.502,2.288 4.004,1.317 3.502,-0.966 -0.352,-1.603 -0.539,-3.077 -0.254,-4.708 0.397,-2.267 -2.928,-3.272 -3.502,-0.966 -0.726,2.913 -5.372,3.619 -6.565,0.603 -1.939,-4.905 4.52,-4.744 7.21,-3.537 1.084,0.486 2.292,0.12 2.668,-1.085 1.225,-3.922 -0.235,-7.592 -4.06,-9.198 -3.786,-1.591 -7.24,1.402 -8.309,4.827 -0.7,2.244 2.807,3.195 3.502,0.967 l 0,0 z"
             id="path2516"
             style="fill:#ffffff" />
        </g>
      </g>
      <g
         id="g2518">
        <g
           id="g2520">
          <path
             d="m 838.594,1168.309 c -1.537,5.089 -1.447,12.995 5.428,13.605 7,0.621 9.767,-8.47 10.009,-13.773 0.106,-2.343 -3.526,-2.333 -3.633,0 -0.155,3.411 -1.387,9.712 -5.794,10.137 -4.531,0.438 -3.214,-6.664 -2.508,-9.003 0.679,-2.249 -2.827,-3.202 -3.502,-0.966 l 0,0 z"
             id="path2522"
             style="fill:#ffffff" />
        </g>
      </g>
      <g
         id="g2524">
        <g
           id="g2526">
          <path
             d="m 866.56,1168.665 c -2.267,-3.328 -5.7,-4.323 -9.183,-2.21 -2.149,1.304 -4.207,4.278 -2.112,6.434 1.94,1.999 5.511,2.337 7.88,3.673 2.072,1.168 -1.161,3.694 -2.221,4.244 -0.675,0.351 -6.519,1.12 -4.669,-0.773 1.638,-1.676 -0.93,-4.246 -2.568,-2.568 -2.838,2.905 -0.97,7.396 3.101,7.637 3.729,0.221 7.387,-1.203 9.563,-4.296 2.245,-3.191 0.706,-6.386 -2.404,-7.923 -1.705,-0.842 -3.559,-1.339 -5.289,-2.12 -0.299,-0.139 -0.586,-0.297 -0.861,-0.477 0.136,0.872 0.341,0.907 0.614,0.105 1.103,-1.84 3.85,-1.601 5.013,0.107 1.308,1.923 4.458,0.108 3.136,-1.833 l 0,0 z"
             id="path2528"
             style="fill:#ffffff" />
        </g>
      </g>
      <g
         id="g2530">
        <g
           id="g2532">
          <path
             d="m 870.717,1188.82 c 2.343,0 2.343,-3.632 0,-3.632 -2.343,0 -2.343,3.632 0,3.632 l 0,0 z"
             id="path2534"
             style="fill:#ffffff" />
        </g>
      </g>
      <g
         id="g2536">
        <g
           id="g2538">
          <path
             d="m 875.644,1189.707 c 2.343,0 2.343,-3.632 0,-3.632 -2.343,0 -2.343,3.632 0,3.632 l 0,0 z"
             id="path2540"
             style="fill:#ffffff" />
        </g>
      </g>
      <g
         id="g2542">
        <g
           id="g2544">
          <path
             d="m 882.274,1190.991 c 2.343,0 2.343,-3.633 0,-3.633 -2.343,0 -2.342,3.633 0,3.633 l 0,0 z"
             id="path2546"
             style="fill:#ffffff" />
        </g>
      </g>
      <g
         id="g2548">
        <g
           id="g2550">
          <path
             d="m 700.48,1124.043 c -1.331,8.473 -2.605,16.936 -4.507,25.304 1.167,0.322 2.335,0.644 3.502,0.966 0.763,-3.575 1.169,-7.266 2.874,-10.557 0.419,-0.808 1.035,-1.68 2.045,-1.759 3.245,-0.253 3.496,4.316 3.087,6.366 -0.521,2.616 -1.496,5.067 -1.832,7.729 -0.292,2.32 3.344,2.292 3.633,0 0.508,-4.027 3.477,-8.833 1.696,-12.91 -1.118,-2.559 -4.61,-5.631 -7.704,-4.703 -5.768,1.732 -6.259,9.982 -7.301,14.868 -0.487,2.28 2.982,3.255 3.502,0.966 1.902,-8.368 3.176,-16.832 4.507,-25.304 0.361,-2.291 -3.139,-3.275 -3.502,-0.966 l 0,0 z"
             id="path2552"
             style="fill:#ffffff" />
        </g>
      </g>
      <g
         id="g2554">
        <g
           id="g2556">
          <path
             d="m 815.875,1148.785 c -1.331,8.472 -2.605,16.935 -4.506,25.303 1.167,0.322 2.335,0.644 3.502,0.966 0.763,-3.575 1.168,-7.266 2.873,-10.556 0.419,-0.808 1.035,-1.68 2.045,-1.759 3.246,-0.253 3.497,4.316 3.088,6.366 -0.522,2.616 -1.497,5.067 -1.833,7.729 -0.292,2.32 3.344,2.292 3.633,0 0.508,-4.027 3.477,-8.833 1.696,-12.91 -1.117,-2.559 -4.61,-5.631 -7.703,-4.703 -5.769,1.731 -6.26,9.982 -7.301,14.867 -0.486,2.28 2.982,3.255 3.502,0.966 1.901,-8.368 3.175,-16.831 4.506,-25.303 0.36,-2.291 -3.14,-3.274 -3.502,-0.966 l 0,0 z"
             id="path2558"
             style="fill:#ffffff" />
        </g>
      </g>
    </g>
  </g>
</svg>
