<?xml version="1.0" encoding="utf-8"?>
<!-- Generator: Adobe Illustrator 16.0.0, SVG Export Plug-In . SVG Version: 6.00 Build 0)  -->
<!DOCTYPE svg PUBLIC "-//W3C//DTD SVG 1.1//EN" "http://www.w3.org/Graphics/SVG/1.1/DTD/svg11.dtd">
<svg version="1.1" id="Layer_1" xmlns="http://www.w3.org/2000/svg" xmlns:xlink="http://www.w3.org/1999/xlink" x="0px" y="0px"
	 width="205px" height="205px" viewBox="0 0 205 205" enable-background="new 0 0 205 205" xml:space="preserve">
<g>
	<g>
		<path fill="#FFFFFF" d="M132.932,22.864c5.323-1.601,10.88-1.238,16.37-1.214c1.07,0.005,1.07-1.654,0-1.659
			c-5.643-0.024-11.342-0.371-16.811,1.273C131.469,21.572,131.905,23.173,132.932,22.864L132.932,22.864z"/>
	</g>
</g>
<g>
	<g>
		<path fill="#FFFFFF" d="M132.076,24.939c13.027,5.496,25.881,11.444,40.037,13.302c0.756,0.099,1.045-0.951,0.586-1.416
			c-6.24-6.328-14.552-9.878-21.153-15.76c-0.796-0.709-1.973,0.46-1.173,1.173c6.598,5.88,14.921,9.442,21.153,15.76
			c0.195-0.472,0.391-0.944,0.586-1.416c-13.983-1.835-26.73-7.814-39.596-13.242C131.532,22.924,131.106,24.53,132.076,24.939
			L132.076,24.939z"/>
	</g>
</g>
<g>
	<g>
		<path fill="#FFFFFF" d="M138.712,23.695c4.6,1.557,9.062,3.817,13.521,5.734c4.608,1.981,9.749,3.637,14.07,6.21
			c0.921,0.549,1.755-0.886,0.837-1.433c-4.321-2.574-9.461-4.227-14.069-6.21c-4.587-1.974-9.182-4.298-13.917-5.901
			C138.137,21.751,137.705,23.354,138.712,23.695L138.712,23.695z"/>
	</g>
</g>
<g>
	<g>
		<path fill="#FFFFFF" d="M136.971,27.462c1.294,2.798,1.11,6.136,3.296,8.457c1.224,1.299,4.353,1.344,5.924,1.555
			c8.692,1.166,17.177,0.357,25.921,0.354c1.07,0,1.07-1.66,0-1.659c-6.78,0.003-13.609,0.8-20.367,0.268
			c-2.951-0.232-5.917-0.583-8.815-1.193c-3.283-0.691-3.354-6.083-4.528-8.618C137.955,25.655,136.525,26.498,136.971,27.462
			L136.971,27.462z"/>
	</g>
</g>
<g>
	<g>
		<g>
			<path fill="#FFFFFF" d="M49.289,96.945c0.515,6.809-0.4,22.751,9.055,23.883c8.896,1.065,15.533-1.63,15.292-11.166
				c-0.176-6.959-0.032-21.479-8.171-24.541c-4.021-1.512-9.315-1.491-12.837,1.217C49.504,88.741,49.343,93.373,49.289,96.945
				c-0.022,1.489,2.286,1.487,2.309,0c0.048-3.222,0.075-6.983,2.886-9.145c3.302-2.54,9.479-1.629,12.368,1.001
				c4.624,4.211,4.151,15.085,4.477,20.86c0.457,8.104-4.992,9.024-11.94,8.912c-8.239-0.133-7.36-15.942-7.79-21.629
				C51.486,95.471,49.177,95.46,49.289,96.945L49.289,96.945z"/>
		</g>
	</g>
	<g>
		<g>
			<path fill="#FFFFFF" d="M56.891,124.223c-0.086,10.03,13.125,12.91,18.036,4.508c2.124-3.633,0.693-7.706-3.421-8.651
				c-4.098-0.942-9.586,0.772-12.487,3.775c-1.034,1.07,0.596,2.704,1.632,1.632c3.338-3.454,16.719-5.509,11.989,2.583
				c-1.582,2.706-5.208,3.696-8.126,3.223c-3.614-0.586-5.343-3.631-5.313-7.07C59.212,122.733,56.904,122.735,56.891,124.223
				L56.891,124.223z"/>
		</g>
	</g>
	<g>
		<g>
			<path fill="#FFFFFF" d="M60.914,96.052c0.038,1.209,0.395,2.375,0.448,3.576c0.022,0.5,0.334,0.994,0.848,1.113
				c1.827,0.422,3.716,0.545,5.531,0c0.488-0.146,0.856-0.592,0.848-1.113c-0.024-1.525-0.283-3.147-0.912-4.544
				c-0.292-0.649-0.76-1.531-1.583-1.529c-1.169,0.004-2.189,0.14-3.266,0.605c-1.363,0.589-0.186,2.578,1.165,1.993
				c0.675-0.292,1.381-0.288,2.101-0.29c-0.272-0.113-0.544-0.226-0.816-0.338c0.861,0.968,0.983,2.87,1.002,4.103
				c0.283-0.371,0.565-0.742,0.848-1.113c-1.424,0.427-2.869,0.331-4.305,0c0.283,0.371,0.565,0.742,0.848,1.113
				c-0.054-1.206-0.411-2.368-0.448-3.576C63.176,94.567,60.868,94.563,60.914,96.052L60.914,96.052z"/>
		</g>
	</g>
	<g>
		<g>
			<path fill="#FFFFFF" d="M57.336,96.499c-0.001,0.163-0.006,0.325-0.015,0.488c-0.002,0.045-0.055,0.5-0.018,0.245
				c-0.041,0.285-0.113,0.564-0.206,0.836c-0.068,0.199,0.096-0.187-0.046,0.106c-0.055,0.114-0.122,0.221-0.191,0.327
				c-0.114,0.173,0.175-0.197-0.035,0.04c-0.072,0.081-0.153,0.153-0.236,0.222c0.278-0.231,0.059-0.053-0.019-0.007
				c-0.034,0.02-0.069,0.039-0.104,0.056c-0.2,0.104,0.271-0.103,0.062-0.024c-0.071,0.026-0.144,0.046-0.217,0.064
				c-0.298,0.073,0.28-0.016-0.023,0.006c-0.073,0.005-0.146,0.003-0.219,0c-0.303-0.011,0.281,0.058-0.015,0
				c-0.07-0.014-0.138-0.034-0.206-0.055c-0.282-0.086,0.247,0.125-0.017-0.002c-0.062-0.03-0.122-0.066-0.18-0.102
				c-0.24-0.149,0.173,0.148,0.028,0.029c-0.051-0.043-0.099-0.09-0.145-0.139c-0.196-0.203,0.153,0.235-0.001,0.001
				c-0.036-0.055-0.065-0.112-0.094-0.171c0.175,0.361,0.05,0.112,0.023,0c-0.045-0.187,0.024,0.346,0.011,0.061
				c-0.015-0.32-0.037,0.122-0.014-0.002c0.013-0.073,0.036-0.144,0.06-0.213c0.042-0.11,0.026-0.072-0.048,0.113
				c0.026-0.057,0.058-0.11,0.089-0.165c0.04-0.068,0.234-0.311,0.018-0.043c0.081-0.1,0.172-0.19,0.264-0.278
				c0.041-0.039,0.331-0.271,0.1-0.096c0.13-0.099,0.269-0.187,0.408-0.272c0.297-0.184,0.615-0.334,0.935-0.474
				c0.577-0.252,0.704-1.085,0.414-1.579c-0.345-0.589-1.002-0.666-1.579-0.414c-1.211,0.529-2.639,1.448-2.896,2.861
				c-0.216,1.184,0.374,2.325,1.443,2.876c1.005,0.519,2.274,0.509,3.221-0.143c1.351-0.93,1.744-2.598,1.756-4.152
				C59.656,95.01,57.348,95.011,57.336,96.499L57.336,96.499z"/>
		</g>
	</g>
	<g>
		<g>
			<path fill="#FFFFFF" d="M78.066,120.063c-0.524,1.2-1.136,2.592-1.029,3.938c0.079,1,0.636,1.968,1.694,2.17
				c1.753,0.335,3.6-0.891,4.792-2.06c1.031-1.012,1.885-2.529,0.834-3.834c-0.505-0.628-1.475-0.77-2.22-0.805
				c-1.277-0.061-2.594,0.223-3.83,0.509c-1.45,0.335-0.835,2.561,0.613,2.226c0.434-0.1,0.868-0.191,1.306-0.27
				c0.189-0.034,0.379-0.063,0.57-0.091c-0.305,0.044-0.012,0.002,0.043-0.004c0.109-0.013,0.218-0.023,0.327-0.033
				c0.282-0.025,0.565-0.037,0.848-0.033c0.118,0.002,0.235,0.009,0.352,0.019c0.09,0.007,0.307,0.04-0.097-0.017
				c0.064,0.009,0.127,0.021,0.19,0.034c0.084,0.017,0.167,0.041,0.249,0.067c0.239,0.077-0.298-0.15-0.037-0.015
				c0.105,0.055,0.302,0.23-0.048-0.056c0.198,0.162,0.01-0.009-0.03-0.067c0.146,0.212-0.055-0.165-0.036-0.11
				c0.088,0.249-0.012-0.199-0.005-0.125c0.005,0.055,0.002,0.111-0.002,0.167c0.04-0.473,0.031-0.202-0.006-0.072
				c-0.03,0.106-0.146,0.363,0.036-0.06c-0.028,0.065-0.061,0.128-0.095,0.19c-0.081,0.149-0.178,0.289-0.281,0.424
				c0.286-0.378-0.092,0.094-0.188,0.194c-0.139,0.146-0.286,0.284-0.437,0.417c-0.072,0.063-0.146,0.125-0.22,0.185
				c-0.267,0.217,0.181-0.134-0.035,0.027c-0.169,0.126-0.344,0.243-0.522,0.354c-0.161,0.101-0.327,0.194-0.495,0.281
				c-0.082,0.042-0.165,0.082-0.248,0.12c-0.214,0.099,0.296-0.112-0.051,0.02c-0.179,0.068-0.363,0.122-0.55,0.162
				c-0.347,0.074,0.23-0.018,0.013,0.002c-0.092,0.009-0.184,0.009-0.275,0.004c-0.218-0.012,0.367,0.079,0.056,0.002
				c-0.306-0.075,0.257,0.143,0.027,0.018c-0.232-0.127,0.239,0.224,0.048,0.04c-0.188-0.18,0.172,0.29,0.016,0.011
				c-0.097-0.172,0.108,0.34,0.014,0.018c-0.014-0.05-0.024-0.101-0.034-0.151c-0.033-0.178,0.037,0.363,0.016,0.096
				c-0.009-0.112-0.007-0.225-0.002-0.337c0.003-0.072,0.01-0.144,0.018-0.216c0.02-0.196-0.052,0.326,0,0.013
				c0.06-0.356,0.159-0.706,0.27-1.049c0.062-0.195,0.133-0.388,0.205-0.581c0.045-0.12,0.093-0.239,0.142-0.358
				c0.05-0.122,0.051-0.124,0.001-0.007c0.028-0.065,0.056-0.13,0.084-0.195c0.252-0.577,0.175-1.234-0.414-1.579
				C79.15,119.359,78.318,119.486,78.066,120.063L78.066,120.063z"/>
		</g>
	</g>
	<g>
		<g>
			<path fill="#FFFFFF" d="M52.231,125.304c-2.445-0.222-5.662-0.176-7.535,1.671c-2.257,2.224,0.417,5.641,2.331,7.012
				c1.978,1.416,4.534,1.119,5.667-1.175c1.23-2.49,0.139-5.469-1.881-7.169c-1.131-0.952-2.772,0.672-1.632,1.632
				c1.276,1.075,2.05,2.597,1.553,4.267c-0.458,1.537-1.858,1.051-2.777,0.237c-0.97-0.859-2.713-2.653-1.047-3.59
				c1.513-0.851,3.664-0.726,5.322-0.575C53.714,127.747,53.701,125.438,52.231,125.304L52.231,125.304z"/>
		</g>
	</g>
	<g>
		<g>
			<path fill="#FFFFFF" d="M86.478,119.751c-0.157-8.646,3.724-15.819,6.996-23.565c0.572-1.354-1.416-2.532-1.993-1.165
				c-3.431,8.121-7.475,15.672-7.311,24.73C84.196,121.238,86.504,121.24,86.478,119.751L86.478,119.751z"/>
		</g>
	</g>
	<g>
		<g>
			<path fill="#FFFFFF" d="M86.218,120.458c9.176-0.835,10.778-18.285,12.292-24.995c0.145-0.639-0.188-1.214-0.806-1.419
				c-0.895-0.298-1.79-0.597-2.686-0.895c-1.416-0.472-2.018,1.757-0.613,2.226c0.895,0.299,1.79,0.597,2.686,0.895
				c-0.269-0.473-0.538-0.946-0.806-1.419c-0.831,3.681-1.588,7.37-2.584,11.011c-0.968,3.536-2.87,11.869-7.482,12.288
				C84.748,118.284,84.735,120.593,86.218,120.458L86.218,120.458z"/>
		</g>
	</g>
	<g>
		<g>
			<path fill="#FFFFFF" d="M93.682,94.365c3.481,1.662,13.091,3.257,11.087-3.54c-1.939-6.575-11.28-4.501-12.105,1.649
				c-0.197,1.472,2.114,1.453,2.309,0c0.561-4.182,7.22-4.792,7.767-0.228c0.336,2.805-6.698,0.696-7.893,0.125
				C93.511,91.733,92.339,93.724,93.682,94.365L93.682,94.365z"/>
		</g>
	</g>
	<g>
		<g>
			<path fill="#FFFFFF" d="M98.103,86.213c-0.127-4.279-0.963-8.571-1.257-12.848c-0.348-5.078-1.403-13.692,2.52-17.705
				c2.748-2.81,5.067,1.313,5.494,3.589c0.641,3.417,0.14,7.167-0.233,10.585c-0.714,6.539-2.469,12.958-3.019,19.509
				c-0.124,1.484,2.185,1.472,2.309,0c0.543-6.478,10.201-38.559-3.845-36.565c-5.526,0.784-5.635,10.131-5.724,14.063
				c-0.146,6.528,1.255,12.891,1.447,19.371C95.838,87.698,98.146,87.703,98.103,86.213L98.103,86.213z"/>
		</g>
	</g>
	<g>
		<g>
			<path fill="#FFFFFF" d="M92.617,47.975c3.76,1.496,10.131,4.426,12.496-0.509c1.788-3.732-0.186-9.806-4.281-11.106
				c-0.574-0.182-1.292,0.208-1.419,0.806c-0.53,2.481-1.287,4.91-1.382,7.461c0.657-0.272,1.313-0.544,1.97-0.816
				c-1.903-1.518-3.462-3.403-5.366-4.92c-0.542-0.432-1.448-0.492-1.812,0.233c-1.479,2.946-0.551,5.796,1.341,8.32
				c0.881,1.176,2.887,0.027,1.993-1.165c-1.323-1.765-2.434-3.814-1.341-5.99c-0.604,0.078-1.208,0.156-1.812,0.233
				c1.903,1.517,3.463,3.403,5.366,4.92c0.773,0.617,1.93,0.261,1.97-0.816c0.087-2.338,0.814-4.574,1.299-6.848
				c-0.473,0.269-0.946,0.538-1.419,0.806c3.077,0.977,3.977,6.025,2.475,8.505c-1.463,2.416-7.55-0.579-9.463-1.34
				C91.846,45.199,91.251,47.432,92.617,47.975L92.617,47.975z"/>
		</g>
	</g>
	<g>
		<g>
			<path fill="#FFFFFF" d="M78.269,139.738c-1.12-2.567-2.428-6.017-5.485-6.731c-3.378-0.79-7.836,1.243-11.163,1.688
				c-1.453,0.195-1.472,2.506,0,2.309c3.162-0.424,6.244-1.377,9.399-1.761c3.111-0.378,4.254,3.365,5.255,5.66
				C76.87,142.265,78.858,141.088,78.269,139.738L78.269,139.738z"/>
		</g>
	</g>
	<g>
		<g>
			<path fill="#FFFFFF" d="M60.914,138.085c0.766,9.569-1.033,19.22,2.841,28.308c0.582,1.365,2.57,0.188,1.993-1.165
				c-3.672-8.614-1.801-18.08-2.526-27.143C63.104,136.612,60.795,136.6,60.914,138.085L60.914,138.085z"/>
		</g>
	</g>
	<g>
		<g>
			<path fill="#FFFFFF" d="M58.045,111.068c4.271,0.396,8.103-1.731,8.714-6.213c0.199-1.455-2.025-2.083-2.226-0.613
				c-0.483,3.539-3.139,4.829-6.489,4.518C56.562,108.622,56.576,110.931,58.045,111.068L58.045,111.068z"/>
		</g>
	</g>
	<g>
		<g>
			<path fill="#FFFFFF" d="M49.549,97.132c-1.916,0.036-3.846,0.358-5.672,0.937c-0.583,0.185-1,0.802-0.806,1.419
				c1.14,3.632,4.333,5.791,8.126,4.83c1.442-0.365,0.83-2.591-0.613-2.226c-2.548,0.646-4.527-0.796-5.288-3.217
				c-0.269,0.473-0.537,0.946-0.806,1.419c1.64-0.52,3.338-0.822,5.059-0.854C51.036,99.413,51.038,97.105,49.549,97.132
				L49.549,97.132z"/>
		</g>
	</g>
	<g>
		<g>
			<path fill="#FFFFFF" d="M71.32,96.27c3.763-0.751,4.646,5.334,1.173,5.823c-1.469,0.206-0.842,2.43,0.613,2.226
				c2.885-0.405,4.181-3.49,3.77-6.115c-0.492-3.145-3.123-4.768-6.169-4.159C69.248,94.335,69.867,96.561,71.32,96.27L71.32,96.27z
				"/>
		</g>
	</g>
	<g>
		<g>
			<path fill="#FFFFFF" d="M41.55,138.252c-2.251,6.602-11.294,18.291-1.26,22.767c0.722,0.322,1.413,0.059,1.695-0.69
				c1.91-5.065,10.622-21.181,0.537-22.883c-1.456-0.246-2.079,1.979-0.613,2.226c7.306,1.233-0.677,16.142-2.149,20.044
				c0.565-0.23,1.13-0.46,1.695-0.69c-8.214-3.665,0.439-14.644,2.32-20.161C44.258,137.453,42.028,136.852,41.55,138.252
				L41.55,138.252z"/>
		</g>
	</g>
	<g>
		<g>
			<path fill="#FFFFFF" d="M57.315,177.328c-4.929,6.568-18.467-6.102-18.419-11.939c0.012-1.489-2.296-1.488-2.309,0
				c-0.067,8.236,16.076,21.959,22.721,13.104C60.202,177.301,58.197,176.153,57.315,177.328L57.315,177.328z"/>
		</g>
	</g>
	<g>
		<g>
			<path fill="#FFFFFF" d="M39.53,167.439c4.471,0.063,22.057,2.425,17.785,9.889c-0.741,1.294,1.254,2.456,1.993,1.165
				c5.777-10.093-13.523-13.273-19.778-13.362C38.041,165.11,38.043,167.418,39.53,167.439L39.53,167.439z"/>
		</g>
	</g>
	<g>
		<g>
			<path fill="#FFFFFF" d="M36.587,160.919c0.206,1.566,0.642,3.265,2.25,3.906c1.183,0.471,2.392-0.357,3.058-1.269
				c0.691-0.945,0.771-2.281,0.206-3.298c-0.834-1.501-2.808-1.825-4.359-1.835c-1.489-0.01-1.488,2.299,0,2.309
				c0.169,0.001,0.338,0.005,0.508,0.013c0.079,0.004,0.158,0.01,0.237,0.017c0.022,0.002,0.395,0.047,0.134,0.01
				c0.313,0.044,0.621,0.121,0.918,0.225c0.202,0.071-0.202-0.102,0.091,0.042c0.107,0.053,0.209,0.116,0.309,0.183
				c0.099,0.072,0.074,0.052-0.074-0.06c0.049,0.04,0.094,0.083,0.14,0.127c0.028,0.028,0.056,0.058,0.083,0.088
				c0.152,0.167-0.165-0.23-0.039-0.049c0.042,0.061,0.078,0.126,0.112,0.193c0.055,0.107-0.091-0.283-0.003,0.025
				c0.09,0.313,0.001-0.115,0.012,0.003c0.008,0.086,0.006,0.174,0.002,0.26c-0.014,0.297,0.058-0.289-0.002,0.003
				c-0.018,0.085-0.043,0.169-0.071,0.252c-0.093,0.278,0.123-0.25-0.007,0.014c-0.038,0.078-0.083,0.153-0.13,0.226
				c-0.049,0.078-0.219,0.285,0.028-0.025c-0.053,0.066-0.112,0.128-0.172,0.188c-0.071,0.071-0.325,0.26,0.006,0.012
				c-0.064,0.048-0.133,0.09-0.203,0.129c-0.238,0.134,0.235-0.086,0.062-0.02c-0.071,0.027-0.146,0.045-0.22,0.061
				c0.407-0.083,0.164-0.019,0.038-0.021c-0.125-0.002,0.34,0.078,0.038-0.001c-0.261-0.068,0.225,0.112,0.056,0.028
				c-0.094-0.046-0.324-0.242-0.022,0.006c-0.075-0.061-0.14-0.133-0.203-0.206c0.246,0.285,0.005-0.007-0.045-0.093
				c-0.039-0.064-0.212-0.445-0.086-0.142c-0.057-0.138-0.103-0.28-0.146-0.423c-0.05-0.163-0.088-0.328-0.124-0.494
				c-0.015-0.073-0.029-0.146-0.042-0.218c0-0.001-0.058-0.377-0.03-0.167c-0.082-0.624-0.463-1.154-1.154-1.154
				C37.174,159.765,36.505,160.294,36.587,160.919L36.587,160.919z"/>
		</g>
	</g>
</g>
<g>
	<g>
		<path fill="#FFFFFF" d="M97.525,35.51c2.712-2.488,5.052-5.135,8.211-7.115c6.779-4.248,15.068-3.668,22.502-1.828
			c1.039,0.257,1.479-1.343,0.441-1.6c-6.949-1.721-14.609-2.456-21.292,0.696c-4.463,2.105-7.475,5.407-11.036,8.673
			C95.562,35.062,96.738,36.231,97.525,35.51L97.525,35.51z"/>
	</g>
</g>
</svg>
